Event Name,Event Description,Event Start Date,Event Start Time,Event End Date,Event End Time,Event Venue Name,Event Organizers,Event Cost,Event Category,Event Website,Event Featured Image,Event Tags,Event Show Map Link,Event Show Map,Age,Language,Category,Theme,Options,External ID
[:en]Kinder Farm Camp[:fr]Camp Bouts d'chou[:],"[:en]In a working farm setting, children encounter all of the farm animals they’ve heard about in nursery rhymes and stories. They even get to take care of the rabbits. Through music, crafts, and co-operative games, campers explore every nook and cranny of the Museum’s barns, exhibitions, and gardens![:fr]Dans une atmosphère de ferme, les enfants rencontrent tous les animaux de ferme dont ils ont entendu parler dans les contes et les comptines. Ils ont même la chance de prendre soin des lapins! Par de la musique, du bricolage et des jeux cooperatives, les bouts d’chou explorent tous les coins et recoins des étables, expositions et jardins du Musée.[:]",2017-06-26,8:00:00 AM,2017-06-30,5:00:00 PM,[:en]Canada Agriculture and Food Museum[:fr]Musée de l'agriculture et de l'alimentation du Canada[:],[:en]Canada Agriculture and Food Museum[:fr]Musée de l'agriculture et de l'alimentation du Canada[:],265,Summer Camps,[:en]http://cafmuseum.techno-science.ca/en/whats-on/kinder-farm-camp.php[:fr]http://museeaac.techno-science.ca/fr/a-voir/camp-bout-d-chou.php[:],,,TRUE,TRUE,4|5,French|English,,Nature and Outdoors,Online booking,CAFM-S17-001
[:en]Kinder Farm Camp[:fr]Camp Bouts d'chou[:],"[:en]In a working farm setting, children encounter all of the farm animals they’ve heard about in nursery rhymes and stories. They even get to take care of the rabbits. Through music, crafts, and co-operative games, campers explore every nook and cranny of the Museum’s barns, exhibitions, and gardens![:fr]Dans une atmosphère de ferme, les enfants rencontrent tous les animaux de ferme dont ils ont entendu parler dans les contes et les comptines. Ils ont même la chance de prendre soin des lapins! Par de la musique, du bricolage et des jeux cooperatives, les bouts d’chou explorent tous les coins et recoins des étables, expositions et jardins du Musée.[:]",2017-07-04,8:00:00 AM,2017-07-07,5:00:00 PM,[:en]Canada Agriculture and Food Museum[:fr]Musée de l'agriculture et de l'alimentation du Canada[:],[:en]Canada Agriculture and Food Museum[:fr]Musée de l'agriculture et de l'alimentation du Canada[:],225,Summer Camps,[:en]http://cafmuseum.techno-science.ca/en/whats-on/kinder-farm-camp.php[:fr]http://museeaac.techno-science.ca/fr/a-voir/camp-bout-d-chou.php[:],,,TRUE,TRUE,4|5,French|English,,Nature and Outdoors,Online booking,CAFM-S17-002
[:en]Kinder Farm Camp[:fr]Camp Bouts d'chou[:],"[:en]In a working farm setting, children encounter all of the farm animals they’ve heard about in nursery rhymes and stories. They even get to take care of the rabbits. Through music, crafts, and co-operative games, campers explore every nook and cranny of the Museum’s barns, exhibitions, and gardens![:fr]Dans une atmosphère de ferme, les enfants rencontrent tous les animaux de ferme dont ils ont entendu parler dans les contes et les comptines. Ils ont même la chance de prendre soin des lapins! Par de la musique, du bricolage et des jeux cooperatives, les bouts d’chou explorent tous les coins et recoins des étables, expositions et jardins du Musée.[:]",2017-07-10,8:00:00 AM,2017-07-14,5:00:00 PM,[:en]Canada Agriculture and Food Museum[:fr]Musée de l'agriculture et de l'alimentation du Canada[:],[:en]Canada Agriculture and Food Museum[:fr]Musée de l'agriculture et de l'alimentation du Canada[:],265,Summer Camps,[:en]http://cafmuseum.techno-science.ca/en/whats-on/kinder-farm-camp.php[:fr]http://museeaac.techno-science.ca/fr/a-voir/camp-bout-d-chou.php[:],,,TRUE,TRUE,4|5,French|English,,Nature and Outdoors,Online booking,CAFM-S17-003
[:en]Kinder Farm Camp[:fr]Camp Bouts d'chou[:],"[:en]In a working farm setting, children encounter all of the farm animals they’ve heard about in nursery rhymes and stories. They even get to take care of the rabbits. Through music, crafts, and co-operative games, campers explore every nook and cranny of the Museum’s barns, exhibitions, and gardens![:fr]Dans une atmosphère de ferme, les enfants rencontrent tous les animaux de ferme dont ils ont entendu parler dans les contes et les comptines. Ils ont même la chance de prendre soin des lapins! Par de la musique, du bricolage et des jeux cooperatives, les bouts d’chou explorent tous les coins et recoins des étables, expositions et jardins du Musée.[:]",2017-07-17,8:00:00 AM,2017-07-21,5:00:00 PM,[:en]Canada Agriculture and Food Museum[:fr]Musée de l'agriculture et de l'alimentation du Canada[:],[:en]Canada Agriculture and Food Museum[:fr]Musée de l'agriculture et de l'alimentation du Canada[:],265,Summer Camps,[:en]http://cafmuseum.techno-science.ca/en/whats-on/kinder-farm-camp.php[:fr]http://museeaac.techno-science.ca/fr/a-voir/camp-bout-d-chou.php[:],,,TRUE,TRUE,4|5,French|English,,Nature and Outdoors,Online booking,CAFM-S17-004
[:en]Kinder Farm Camp[:fr]Camp Bouts d'chou[:],"[:en]In a working farm setting, children encounter all of the farm animals they’ve heard about in nursery rhymes and stories. They even get to take care of the rabbits. Through music, crafts, and co-operative games, campers explore every nook and cranny of the Museum’s barns, exhibitions, and gardens![:fr]Dans une atmosphère de ferme, les enfants rencontrent tous les animaux de ferme dont ils ont entendu parler dans les contes et les comptines. Ils ont même la chance de prendre soin des lapins! Par de la musique, du bricolage et des jeux cooperatives, les bouts d’chou explorent tous les coins et recoins des étables, expositions et jardins du Musée.[:]",2017-07-24,8:00:00 AM,2017-07-28,5:00:00 PM,[:en]Canada Agriculture and Food Museum[:fr]Musée de l'agriculture et de l'alimentation du Canada[:],[:en]Canada Agriculture and Food Museum[:fr]Musée de l'agriculture et de l'alimentation du Canada[:],265,Summer Camps,[:en]http://cafmuseum.techno-science.ca/en/whats-on/kinder-farm-camp.php[:fr]http://museeaac.techno-science.ca/fr/a-voir/camp-bout-d-chou.php[:],,,TRUE,TRUE,4|5,French|English,,Nature and Outdoors,Online booking,CAFM-S17-005
[:en]Kinder Farm Camp[:fr]Camp Bouts d'chou[:],"[:en]In a working farm setting, children encounter all of the farm animals they’ve heard about in nursery rhymes and stories. They even get to take care of the rabbits. Through music, crafts, and co-operative games, campers explore every nook and cranny of the Museum’s barns, exhibitions, and gardens![:fr]Dans une atmosphère de ferme, les enfants rencontrent tous les animaux de ferme dont ils ont entendu parler dans les contes et les comptines. Ils ont même la chance de prendre soin des lapins! Par de la musique, du bricolage et des jeux cooperatives, les bouts d’chou explorent tous les coins et recoins des étables, expositions et jardins du Musée.[:]",2017-07-31,8:00:00 AM,2017-08-04,5:00:00 PM,[:en]Canada Agriculture and Food Museum[:fr]Musée de l'agriculture et de l'alimentation du Canada[:],[:en]Canada Agriculture and Food Museum[:fr]Musée de l'agriculture et de l'alimentation du Canada[:],265,Summer Camps,[:en]http://cafmuseum.techno-science.ca/en/whats-on/kinder-farm-camp.php[:fr]http://museeaac.techno-science.ca/fr/a-voir/camp-bout-d-chou.php[:],,,TRUE,TRUE,4|5,French|English,,Nature and Outdoors,Online booking,CAFM-S17-006
[:en]Kinder Farm Camp[:fr]Camp Bouts d'chou[:],"[:en]In a working farm setting, children encounter all of the farm animals they’ve heard about in nursery rhymes and stories. They even get to take care of the rabbits. Through music, crafts, and co-operative games, campers explore every nook and cranny of the Museum’s barns, exhibitions, and gardens![:fr]Dans une atmosphère de ferme, les enfants rencontrent tous les animaux de ferme dont ils ont entendu parler dans les contes et les comptines. Ils ont même la chance de prendre soin des lapins! Par de la musique, du bricolage et des jeux cooperatives, les bouts d’chou explorent tous les coins et recoins des étables, expositions et jardins du Musée.[:]",2017-08-08,8:00:00 AM,2017-08-11,5:00:00 PM,[:en]Canada Agriculture and Food Museum[:fr]Musée de l'agriculture et de l'alimentation du Canada[:],[:en]Canada Agriculture and Food Museum[:fr]Musée de l'agriculture et de l'alimentation du Canada[:],225,Summer Camps,[:en]http://cafmuseum.techno-science.ca/en/whats-on/kinder-farm-camp.php[:fr]http://museeaac.techno-science.ca/fr/a-voir/camp-bout-d-chou.php[:],,,TRUE,TRUE,4|5,French|English,,Nature and Outdoors,Online booking,CAFM-S17-007
[:en]Kinder Farm Camp[:fr]Camp Bouts d'chou[:],"[:en]In a working farm setting, children encounter all of the farm animals they’ve heard about in nursery rhymes and stories. They even get to take care of the rabbits. Through music, crafts, and co-operative games, campers explore every nook and cranny of the Museum’s barns, exhibitions, and gardens![:fr]Dans une atmosphère de ferme, les enfants rencontrent tous les animaux de ferme dont ils ont entendu parler dans les contes et les comptines. Ils ont même la chance de prendre soin des lapins! Par de la musique, du bricolage et des jeux cooperatives, les bouts d’chou explorent tous les coins et recoins des étables, expositions et jardins du Musée.[:]",2017-08-14,8:00:00 AM,2017-08-18,5:00:00 PM,[:en]Canada Agriculture and Food Museum[:fr]Musée de l'agriculture et de l'alimentation du Canada[:],[:en]Canada Agriculture and Food Museum[:fr]Musée de l'agriculture et de l'alimentation du Canada[:],265,Summer Camps,[:en]http://cafmuseum.techno-science.ca/en/whats-on/kinder-farm-camp.php[:fr]http://museeaac.techno-science.ca/fr/a-voir/camp-bout-d-chou.php[:],,,TRUE,TRUE,4|5,French|English,,Nature and Outdoors,Online booking,CAFM-S17-008
[:en]Kinder Farm Camp[:fr]Camp Bouts d'chou[:],"[:en]In a working farm setting, children encounter all of the farm animals they’ve heard about in nursery rhymes and stories. They even get to take care of the rabbits. Through music, crafts, and co-operative games, campers explore every nook and cranny of the Museum’s barns, exhibitions, and gardens![:fr]Dans une atmosphère de ferme, les enfants rencontrent tous les animaux de ferme dont ils ont entendu parler dans les contes et les comptines. Ils ont même la chance de prendre soin des lapins! Par de la musique, du bricolage et des jeux cooperatives, les bouts d’chou explorent tous les coins et recoins des étables, expositions et jardins du Musée.[:]",2017-08-21,8:00:00 AM,2017-08-25,5:00:00 PM,[:en]Canada Agriculture and Food Museum[:fr]Musée de l'agriculture et de l'alimentation du Canada[:],[:en]Canada Agriculture and Food Museum[:fr]Musée de l'agriculture et de l'alimentation du Canada[:],265,Summer Camps,[:en]http://cafmuseum.techno-science.ca/en/whats-on/kinder-farm-camp.php[:fr]http://museeaac.techno-science.ca/fr/a-voir/camp-bout-d-chou.php[:],,,TRUE,TRUE,4|5,French|English,,Nature and Outdoors,Online booking,CAFM-S17-009
[:en]Kinder Farm Camp[:fr]Camp Bouts d'chou[:],"[:en]In a working farm setting, children encounter all of the farm animals they’ve heard about in nursery rhymes and stories. They even get to take care of the rabbits. Through music, crafts, and co-operative games, campers explore every nook and cranny of the Museum’s barns, exhibitions, and gardens![:fr]Dans une atmosphère de ferme, les enfants rencontrent tous les animaux de ferme dont ils ont entendu parler dans les contes et les comptines. Ils ont même la chance de prendre soin des lapins! Par de la musique, du bricolage et des jeux cooperatives, les bouts d’chou explorent tous les coins et recoins des étables, expositions et jardins du Musée.[:]",2017-08-28,8:00:00 AM,2017-09-01,5:00:00 PM,[:en]Canada Agriculture and Food Museum[:fr]Musée de l'agriculture et de l'alimentation du Canada[:],[:en]Canada Agriculture and Food Museum[:fr]Musée de l'agriculture et de l'alimentation du Canada[:],265,Summer Camps,[:en]http://cafmuseum.techno-science.ca/en/whats-on/kinder-farm-camp.php[:fr]http://museeaac.techno-science.ca/fr/a-voir/camp-bout-d-chou.php[:],,,TRUE,TRUE,4|5,French|English,,Nature and Outdoors,Online booking,CAFM-S17-010
[:en]Fun at the Farm Camp[:fr]Camp plein de vie à la ferme[:],"[:en]Kids discover what makes farming fun. By “adopting” a cow for a week, campers learn what it means to care for animals. Nature studies, crafts, games, and more fill your child’s days with fresh air and fun![:fr]Les enfants découvrent les joies de la vie agricole. En « adoptant » une vache pour une semaine, ils apprennent à prendre soin des animaux. Observation de la nature, bricolage, jeux et plus encore divertissent les enfants tout en les faisant profiter du grand air.[:]",2017-06-26,8:00:00 AM,2017-06-30,5:00:00 PM,[:en]Canada Agriculture and Food Museum[:fr]Musée de l'agriculture et de l'alimentation du Canada[:],[:en]Canada Agriculture and Food Museum[:fr]Musée de l'agriculture et de l'alimentation du Canada[:],265,Summer Camps,[:en]http://cafmuseum.techno-science.ca/en/whats-on/fun-at-the-farm-camp.php[:fr]http://museeaac.techno-science.ca/fr/a-voir/camp-plein-de-vie-a-la-ferme.php[:],,,TRUE,TRUE,6|7|8,French|English,,Nature and Outdoors,Online booking,CAFM-S17-011
[:en]Fun at the Farm Camp[:fr]Camp plein de vie à la ferme[:],"[:en]Kids discover what makes farming fun. By “adopting” a cow for a week, campers learn what it means to care for animals. Nature studies, crafts, games, and more fill your child’s days with fresh air and fun![:fr]Les enfants découvrent les joies de la vie agricole. En « adoptant » une vache pour une semaine, ils apprennent à prendre soin des animaux. Observation de la nature, bricolage, jeux et plus encore divertissent les enfants tout en les faisant profiter du grand air.[:]",2017-07-04,8:00:00 AM,2017-07-07,5:00:00 PM,[:en]Canada Agriculture and Food Museum[:fr]Musée de l'agriculture et de l'alimentation du Canada[:],[:en]Canada Agriculture and Food Museum[:fr]Musée de l'agriculture et de l'alimentation du Canada[:],225,Summer Camps,[:en]http://cafmuseum.techno-science.ca/en/whats-on/fun-at-the-farm-camp.php[:fr]http://museeaac.techno-science.ca/fr/a-voir/camp-plein-de-vie-a-la-ferme.php[:],,,TRUE,TRUE,6|7|8,French|English,,Nature and Outdoors,Online booking,CAFM-S17-012
[:en]Fun at the Farm Camp[:fr]Camp plein de vie à la ferme[:],"[:en]Kids discover what makes farming fun. By “adopting” a cow for a week, campers learn what it means to care for animals. Nature studies, crafts, games, and more fill your child’s days with fresh air and fun![:fr]Les enfants découvrent les joies de la vie agricole. En « adoptant » une vache pour une semaine, ils apprennent à prendre soin des animaux. Observation de la nature, bricolage, jeux et plus encore divertissent les enfants tout en les faisant profiter du grand air.[:]",2017-07-10,8:00:00 AM,2017-07-14,5:00:00 PM,[:en]Canada Agriculture and Food Museum[:fr]Musée de l'agriculture et de l'alimentation du Canada[:],[:en]Canada Agriculture and Food Museum[:fr]Musée de l'agriculture et de l'alimentation du Canada[:],265,Summer Camps,[:en]http://cafmuseum.techno-science.ca/en/whats-on/fun-at-the-farm-camp.php[:fr]http://museeaac.techno-science.ca/fr/a-voir/camp-plein-de-vie-a-la-ferme.php[:],,,TRUE,TRUE,6|7|8,French|English,,Nature and Outdoors,Online booking,CAFM-S17-013
[:en]Fun at the Farm Camp[:fr]Camp plein de vie à la ferme[:],"[:en]Kids discover what makes farming fun. By “adopting” a cow for a week, campers learn what it means to care for animals. Nature studies, crafts, games, and more fill your child’s days with fresh air and fun![:fr]Les enfants découvrent les joies de la vie agricole. En « adoptant » une vache pour une semaine, ils apprennent à prendre soin des animaux. Observation de la nature, bricolage, jeux et plus encore divertissent les enfants tout en les faisant profiter du grand air.[:]",2017-07-17,8:00:00 AM,2017-07-21,5:00:00 PM,[:en]Canada Agriculture and Food Museum[:fr]Musée de l'agriculture et de l'alimentation du Canada[:],[:en]Canada Agriculture and Food Museum[:fr]Musée de l'agriculture et de l'alimentation du Canada[:],265,Summer Camps,[:en]http://cafmuseum.techno-science.ca/en/whats-on/fun-at-the-farm-camp.php[:fr]http://museeaac.techno-science.ca/fr/a-voir/camp-plein-de-vie-a-la-ferme.php[:],,,TRUE,TRUE,6|7|8,French|English,,Nature and Outdoors,Online booking,CAFM-S17-014
[:en]Fun at the Farm Camp[:fr]Camp plein de vie à la ferme[:],"[:en]Kids discover what makes farming fun. By “adopting” a cow for a week, campers learn what it means to care for animals. Nature studies, crafts, games, and more fill your child’s days with fresh air and fun![:fr]Les enfants découvrent les joies de la vie agricole. En « adoptant » une vache pour une semaine, ils apprennent à prendre soin des animaux. Observation de la nature, bricolage, jeux et plus encore divertissent les enfants tout en les faisant profiter du grand air.[:]",2017-07-24,8:00:00 AM,2017-07-28,5:00:00 PM,[:en]Canada Agriculture and Food Museum[:fr]Musée de l'agriculture et de l'alimentation du Canada[:],[:en]Canada Agriculture and Food Museum[:fr]Musée de l'agriculture et de l'alimentation du Canada[:],265,Summer Camps,[:en]http://cafmuseum.techno-science.ca/en/whats-on/fun-at-the-farm-camp.php[:fr]http://museeaac.techno-science.ca/fr/a-voir/camp-plein-de-vie-a-la-ferme.php[:],,,TRUE,TRUE,6|7|8,French|English,,Nature and Outdoors,Online booking,CAFM-S17-015
[:en]Fun at the Farm Camp[:fr]Camp plein de vie à la ferme[:],"[:en]Kids discover what makes farming fun. By “adopting” a cow for a week, campers learn what it means to care for animals. Nature studies, crafts, games, and more fill your child’s days with fresh air and fun![:fr]Les enfants découvrent les joies de la vie agricole. En « adoptant » une vache pour une semaine, ils apprennent à prendre soin des animaux. Observation de la nature, bricolage, jeux et plus encore divertissent les enfants tout en les faisant profiter du grand air.[:]",2017-07-31,8:00:00 AM,2017-08-04,5:00:00 PM,[:en]Canada Agriculture and Food Museum[:fr]Musée de l'agriculture et de l'alimentation du Canada[:],[:en]Canada Agriculture and Food Museum[:fr]Musée de l'agriculture et de l'alimentation du Canada[:],265,Summer Camps,[:en]http://cafmuseum.techno-science.ca/en/whats-on/fun-at-the-farm-camp.php[:fr]http://museeaac.techno-science.ca/fr/a-voir/camp-plein-de-vie-a-la-ferme.php[:],,,TRUE,TRUE,6|7|8,French|English,,Nature and Outdoors,Online booking,CAFM-S17-016
[:en]Fun at the Farm Camp[:fr]Camp plein de vie à la ferme[:],"[:en]Kids discover what makes farming fun. By “adopting” a cow for a week, campers learn what it means to care for animals. Nature studies, crafts, games, and more fill your child’s days with fresh air and fun![:fr]Les enfants découvrent les joies de la vie agricole. En « adoptant » une vache pour une semaine, ils apprennent à prendre soin des animaux. Observation de la nature, bricolage, jeux et plus encore divertissent les enfants tout en les faisant profiter du grand air.[:]",2017-08-08,8:00:00 AM,2017-08-11,5:00:00 PM,[:en]Canada Agriculture and Food Museum[:fr]Musée de l'agriculture et de l'alimentation du Canada[:],[:en]Canada Agriculture and Food Museum[:fr]Musée de l'agriculture et de l'alimentation du Canada[:],225,Summer Camps,[:en]http://cafmuseum.techno-science.ca/en/whats-on/fun-at-the-farm-camp.php[:fr]http://museeaac.techno-science.ca/fr/a-voir/camp-plein-de-vie-a-la-ferme.php[:],,,TRUE,TRUE,6|7|8,French|English,,Nature and Outdoors,Online booking,CAFM-S17-017
[:en]Fun at the Farm Camp[:fr]Camp plein de vie à la ferme[:],"[:en]Kids discover what makes farming fun. By “adopting” a cow for a week, campers learn what it means to care for animals. Nature studies, crafts, games, and more fill your child’s days with fresh air and fun![:fr]Les enfants découvrent les joies de la vie agricole. En « adoptant » une vache pour une semaine, ils apprennent à prendre soin des animaux. Observation de la nature, bricolage, jeux et plus encore divertissent les enfants tout en les faisant profiter du grand air.[:]",2017-08-14,8:00:00 AM,2017-08-18,5:00:00 PM,[:en]Canada Agriculture and Food Museum[:fr]Musée de l'agriculture et de l'alimentation du Canada[:],[:en]Canada Agriculture and Food Museum[:fr]Musée de l'agriculture et de l'alimentation du Canada[:],265,Summer Camps,[:en]http://cafmuseum.techno-science.ca/en/whats-on/fun-at-the-farm-camp.php[:fr]http://museeaac.techno-science.ca/fr/a-voir/camp-plein-de-vie-a-la-ferme.php[:],,,TRUE,TRUE,6|7|8,French|English,,Nature and Outdoors,Online booking,CAFM-S17-018
[:en]Fun at the Farm Camp[:fr]Camp plein de vie à la ferme[:],"[:en]Kids discover what makes farming fun. By “adopting” a cow for a week, campers learn what it means to care for animals. Nature studies, crafts, games, and more fill your child’s days with fresh air and fun![:fr]Les enfants découvrent les joies de la vie agricole. En « adoptant » une vache pour une semaine, ils apprennent à prendre soin des animaux. Observation de la nature, bricolage, jeux et plus encore divertissent les enfants tout en les faisant profiter du grand air.[:]",2017-08-21,8:00:00 AM,2017-08-25,5:00:00 PM,[:en]Canada Agriculture and Food Museum[:fr]Musée de l'agriculture et de l'alimentation du Canada[:],[:en]Canada Agriculture and Food Museum[:fr]Musée de l'agriculture et de l'alimentation du Canada[:],265,Summer Camps,[:en]http://cafmuseum.techno-science.ca/en/whats-on/fun-at-the-farm-camp.php[:fr]http://museeaac.techno-science.ca/fr/a-voir/camp-plein-de-vie-a-la-ferme.php[:],,,TRUE,TRUE,6|7|8,French|English,,Nature and Outdoors,Online booking,CAFM-S17-019
[:en]Fun at the Farm Camp[:fr]Camp plein de vie à la ferme[:],"[:en]Kids discover what makes farming fun. By “adopting” a cow for a week, campers learn what it means to care for animals. Nature studies, crafts, games, and more fill your child’s days with fresh air and fun![:fr]Les enfants découvrent les joies de la vie agricole. En « adoptant » une vache pour une semaine, ils apprennent à prendre soin des animaux. Observation de la nature, bricolage, jeux et plus encore divertissent les enfants tout en les faisant profiter du grand air.[:]",2017-08-28,8:00:00 AM,2017-09-01,5:00:00 PM,[:en]Canada Agriculture and Food Museum[:fr]Musée de l'agriculture et de l'alimentation du Canada[:],[:en]Canada Agriculture and Food Museum[:fr]Musée de l'agriculture et de l'alimentation du Canada[:],265,Summer Camps,[:en]http://cafmuseum.techno-science.ca/en/whats-on/fun-at-the-farm-camp.php[:fr]http://museeaac.techno-science.ca/fr/a-voir/camp-plein-de-vie-a-la-ferme.php[:],,,TRUE,TRUE,6|7|8,French|English,,Nature and Outdoors,Online booking,CAFM-S17-020
[:en]Sprouting Chefs Camp[:fr]Camp Apprentis Cuisiniers[:],"[:en]Sprouting Chefs Camp is all about fun in the kitchen! Through hands-on entertaining and interactive cooking, little chefs learn the basics of food preparation, safe cooking, and healthy eating. While children create great food, they discover the important role agriculture plays in their everyday lives. They also learn to take care of indoor plants and an outdoor garden. This experience includes a visit to the farm animals to learn their role in this great adventure! [:fr]Ce camp culinaire amusant permet aux petits cuisiniers de se familiariser avec les principes de bases en cuisine, les techniques sécuritaires de préparation des aliments, l’alimentation santé et surtout, ils apprennent en créant des recettes amusantes et délicieuses et en réalisant l’importance de l’agriculture dans leur vie quotidienne. En plus d’activités culinaires interactives, les enfants prendront soin d’un jardin extérieur. L’expérience ne serait pas complète sans une visite des animaux de la ferme afin d’apprendre le rôle qu’ils jouent dans toute cette belle aventure![:]",2017-06-26,8:00:00 AM,2017-06-30,5:00:00 PM,[:en]Canada Agriculture and Food Museum[:fr]Musée de l'agriculture et de l'alimentation du Canada[:],[:en]Canada Agriculture and Food Museum[:fr]Musée de l'agriculture et de l'alimentation du Canada[:],265,Summer Camps,[:en]http://cafmuseum.techno-science.ca/en/whats-on/sprouting-chefs-camp.php[:fr]http://museeaac.techno-science.ca/fr/a-voir/camp-apprentis-cuisiniers.php[:],,,TRUE,TRUE,8|9|10,French|English,,Food,Online booking,CAFM-S17-021
[:en]Sprouting Chefs Camp[:fr]Camp Apprentis Cuisiniers[:],"[:en]Sprouting Chefs Camp is all about fun in the kitchen! Through hands-on entertaining and interactive cooking, little chefs learn the basics of food preparation, safe cooking, and healthy eating. While children create great food, they discover the important role agriculture plays in their everyday lives. They also learn to take care of indoor plants and an outdoor garden. This experience includes a visit to the farm animals to learn their role in this great adventure! [:fr]Ce camp culinaire amusant permet aux petits cuisiniers de se familiariser avec les principes de bases en cuisine, les techniques sécuritaires de préparation des aliments, l’alimentation santé et surtout, ils apprennent en créant des recettes amusantes et délicieuses et en réalisant l’importance de l’agriculture dans leur vie quotidienne. En plus d’activités culinaires interactives, les enfants prendront soin d’un jardin extérieur. L’expérience ne serait pas complète sans une visite des animaux de la ferme afin d’apprendre le rôle qu’ils jouent dans toute cette belle aventure![:]",2017-07-04,8:00:00 AM,2017-07-07,5:00:00 PM,[:en]Canada Agriculture and Food Museum[:fr]Musée de l'agriculture et de l'alimentation du Canada[:],[:en]Canada Agriculture and Food Museum[:fr]Musée de l'agriculture et de l'alimentation du Canada[:],225,Summer Camps,[:en]http://cafmuseum.techno-science.ca/en/whats-on/fun-at-the-farm-camp.php[:fr]http://museeaac.techno-science.ca/fr/a-voir/camp-apprentis-cuisiniers.php[:],,,TRUE,TRUE,8|9|10,French|English,,Food,Online booking,CAFM-S17-022
[:en]Sprouting Chefs Camp[:fr]Camp Apprentis Cuisiniers[:],"[:en]Sprouting Chefs Camp is all about fun in the kitchen! Through hands-on entertaining and interactive cooking, little chefs learn the basics of food preparation, safe cooking, and healthy eating. While children create great food, they discover the important role agriculture plays in their everyday lives. They also learn to take care of indoor plants and an outdoor garden. This experience includes a visit to the farm animals to learn their role in this great adventure! [:fr]Ce camp culinaire amusant permet aux petits cuisiniers de se familiariser avec les principes de bases en cuisine, les techniques sécuritaires de préparation des aliments, l’alimentation santé et surtout, ils apprennent en créant des recettes amusantes et délicieuses et en réalisant l’importance de l’agriculture dans leur vie quotidienne. En plus d’activités culinaires interactives, les enfants prendront soin d’un jardin extérieur. L’expérience ne serait pas complète sans une visite des animaux de la ferme afin d’apprendre le rôle qu’ils jouent dans toute cette belle aventure![:]",2017-07-10,8:00:00 AM,2017-07-14,5:00:00 PM,[:en]Canada Agriculture and Food Museum[:fr]Musée de l'agriculture et de l'alimentation du Canada[:],[:en]Canada Agriculture and Food Museum[:fr]Musée de l'agriculture et de l'alimentation du Canada[:],265,Summer Camps,[:en]http://cafmuseum.techno-science.ca/en/whats-on/fun-at-the-farm-camp.php[:fr]http://museeaac.techno-science.ca/fr/a-voir/camp-apprentis-cuisiniers.php[:],,,TRUE,TRUE,8|9|10,French|English,,Food,Online booking,CAFM-S17-023
[:en]Sprouting Chefs Camp[:fr]Camp Apprentis Cuisiniers[:],"[:en]Sprouting Chefs Camp is all about fun in the kitchen! Through hands-on entertaining and interactive cooking, little chefs learn the basics of food preparation, safe cooking, and healthy eating. While children create great food, they discover the important role agriculture plays in their everyday lives. They also learn to take care of indoor plants and an outdoor garden. This experience includes a visit to the farm animals to learn their role in this great adventure! [:fr]Ce camp culinaire amusant permet aux petits cuisiniers de se familiariser avec les principes de bases en cuisine, les techniques sécuritaires de préparation des aliments, l’alimentation santé et surtout, ils apprennent en créant des recettes amusantes et délicieuses et en réalisant l’importance de l’agriculture dans leur vie quotidienne. En plus d’activités culinaires interactives, les enfants prendront soin d’un jardin extérieur. L’expérience ne serait pas complète sans une visite des animaux de la ferme afin d’apprendre le rôle qu’ils jouent dans toute cette belle aventure![:]",2017-07-17,8:00:00 AM,2017-07-21,5:00:00 PM,[:en]Canada Agriculture and Food Museum[:fr]Musée de l'agriculture et de l'alimentation du Canada[:],[:en]Canada Agriculture and Food Museum[:fr]Musée de l'agriculture et de l'alimentation du Canada[:],265,Summer Camps,[:en]http://cafmuseum.techno-science.ca/en/whats-on/fun-at-the-farm-camp.php[:fr]http://museeaac.techno-science.ca/fr/a-voir/camp-apprentis-cuisiniers.php[:],,,TRUE,TRUE,8|9|10,French|English,,Food,Online booking,CAFM-S17-024
[:en]Sprouting Chefs Camp[:fr]Camp Apprentis Cuisiniers[:],"[:en]Sprouting Chefs Camp is all about fun in the kitchen! Through hands-on entertaining and interactive cooking, little chefs learn the basics of food preparation, safe cooking, and healthy eating. While children create great food, they discover the important role agriculture plays in their everyday lives. They also learn to take care of indoor plants and an outdoor garden. This experience includes a visit to the farm animals to learn their role in this great adventure! [:fr]Ce camp culinaire amusant permet aux petits cuisiniers de se familiariser avec les principes de bases en cuisine, les techniques sécuritaires de préparation des aliments, l’alimentation santé et surtout, ils apprennent en créant des recettes amusantes et délicieuses et en réalisant l’importance de l’agriculture dans leur vie quotidienne. En plus d’activités culinaires interactives, les enfants prendront soin d’un jardin extérieur. L’expérience ne serait pas complète sans une visite des animaux de la ferme afin d’apprendre le rôle qu’ils jouent dans toute cette belle aventure![:]",2017-07-24,8:00:00 AM,2017-07-28,5:00:00 PM,[:en]Canada Agriculture and Food Museum[:fr]Musée de l'agriculture et de l'alimentation du Canada[:],[:en]Canada Agriculture and Food Museum[:fr]Musée de l'agriculture et de l'alimentation du Canada[:],265,Summer Camps,[:en]http://cafmuseum.techno-science.ca/en/whats-on/fun-at-the-farm-camp.php[:fr]http://museeaac.techno-science.ca/fr/a-voir/camp-apprentis-cuisiniers.php[:],,,TRUE,TRUE,8|9|10,French|English,,Food,Online booking,CAFM-S17-025
[:en]Sprouting Chefs Camp[:fr]Camp Apprentis Cuisiniers[:],"[:en]Sprouting Chefs Camp is all about fun in the kitchen! Through hands-on entertaining and interactive cooking, little chefs learn the basics of food preparation, safe cooking, and healthy eating. While children create great food, they discover the important role agriculture plays in their everyday lives. They also learn to take care of indoor plants and an outdoor garden. This experience includes a visit to the farm animals to learn their role in this great adventure! [:fr]Ce camp culinaire amusant permet aux petits cuisiniers de se familiariser avec les principes de bases en cuisine, les techniques sécuritaires de préparation des aliments, l’alimentation santé et surtout, ils apprennent en créant des recettes amusantes et délicieuses et en réalisant l’importance de l’agriculture dans leur vie quotidienne. En plus d’activités culinaires interactives, les enfants prendront soin d’un jardin extérieur. L’expérience ne serait pas complète sans une visite des animaux de la ferme afin d’apprendre le rôle qu’ils jouent dans toute cette belle aventure![:]",2017-07-31,8:00:00 AM,2017-08-04,5:00:00 PM,[:en]Canada Agriculture and Food Museum[:fr]Musée de l'agriculture et de l'alimentation du Canada[:],[:en]Canada Agriculture and Food Museum[:fr]Musée de l'agriculture et de l'alimentation du Canada[:],265,Summer Camps,[:en]http://cafmuseum.techno-science.ca/en/whats-on/fun-at-the-farm-camp.php[:fr]http://museeaac.techno-science.ca/fr/a-voir/camp-apprentis-cuisiniers.php[:],,,TRUE,TRUE,8|9|10,French|English,,Food,Online booking,CAFM-S17-026
[:en]Sprouting Chefs Camp[:fr]Camp Apprentis Cuisiniers[:],"[:en]Sprouting Chefs Camp is all about fun in the kitchen! Through hands-on entertaining and interactive cooking, little chefs learn the basics of food preparation, safe cooking, and healthy eating. While children create great food, they discover the important role agriculture plays in their everyday lives. They also learn to take care of indoor plants and an outdoor garden. This experience includes a visit to the farm animals to learn their role in this great adventure! [:fr]Ce camp culinaire amusant permet aux petits cuisiniers de se familiariser avec les principes de bases en cuisine, les techniques sécuritaires de préparation des aliments, l’alimentation santé et surtout, ils apprennent en créant des recettes amusantes et délicieuses et en réalisant l’importance de l’agriculture dans leur vie quotidienne. En plus d’activités culinaires interactives, les enfants prendront soin d’un jardin extérieur. L’expérience ne serait pas complète sans une visite des animaux de la ferme afin d’apprendre le rôle qu’ils jouent dans toute cette belle aventure![:]",2017-08-08,8:00:00 AM,2017-08-11,5:00:00 PM,[:en]Canada Agriculture and Food Museum[:fr]Musée de l'agriculture et de l'alimentation du Canada[:],[:en]Canada Agriculture and Food Museum[:fr]Musée de l'agriculture et de l'alimentation du Canada[:],225,Summer Camps,[:en]http://cafmuseum.techno-science.ca/en/whats-on/fun-at-the-farm-camp.php[:fr]http://museeaac.techno-science.ca/fr/a-voir/camp-apprentis-cuisiniers.php[:],,,TRUE,TRUE,8|9|10,French|English,,Food,Online booking,CAFM-S17-027
[:en]Sprouting Chefs Camp[:fr]Camp Apprentis Cuisiniers[:],"[:en]Sprouting Chefs Camp is all about fun in the kitchen! Through hands-on entertaining and interactive cooking, little chefs learn the basics of food preparation, safe cooking, and healthy eating. While children create great food, they discover the important role agriculture plays in their everyday lives. They also learn to take care of indoor plants and an outdoor garden. This experience includes a visit to the farm animals to learn their role in this great adventure! [:fr]Ce camp culinaire amusant permet aux petits cuisiniers de se familiariser avec les principes de bases en cuisine, les techniques sécuritaires de préparation des aliments, l’alimentation santé et surtout, ils apprennent en créant des recettes amusantes et délicieuses et en réalisant l’importance de l’agriculture dans leur vie quotidienne. En plus d’activités culinaires interactives, les enfants prendront soin d’un jardin extérieur. L’expérience ne serait pas complète sans une visite des animaux de la ferme afin d’apprendre le rôle qu’ils jouent dans toute cette belle aventure![:]",2017-08-14,8:00:00 AM,2017-08-18,5:00:00 PM,[:en]Canada Agriculture and Food Museum[:fr]Musée de l'agriculture et de l'alimentation du Canada[:],[:en]Canada Agriculture and Food Museum[:fr]Musée de l'agriculture et de l'alimentation du Canada[:],265,Summer Camps,[:en]http://cafmuseum.techno-science.ca/en/whats-on/fun-at-the-farm-camp.php[:fr]http://museeaac.techno-science.ca/fr/a-voir/camp-apprentis-cuisiniers.php[:],,,TRUE,TRUE,8|9|10,French|English,,Food,Online booking,CAFM-S17-028
[:en]Sprouting Chefs Camp[:fr]Camp Apprentis Cuisiniers[:],"[:en]Sprouting Chefs Camp is all about fun in the kitchen! Through hands-on entertaining and interactive cooking, little chefs learn the basics of food preparation, safe cooking, and healthy eating. While children create great food, they discover the important role agriculture plays in their everyday lives. They also learn to take care of indoor plants and an outdoor garden. This experience includes a visit to the farm animals to learn their role in this great adventure! [:fr]Ce camp culinaire amusant permet aux petits cuisiniers de se familiariser avec les principes de bases en cuisine, les techniques sécuritaires de préparation des aliments, l’alimentation santé et surtout, ils apprennent en créant des recettes amusantes et délicieuses et en réalisant l’importance de l’agriculture dans leur vie quotidienne. En plus d’activités culinaires interactives, les enfants prendront soin d’un jardin extérieur. L’expérience ne serait pas complète sans une visite des animaux de la ferme afin d’apprendre le rôle qu’ils jouent dans toute cette belle aventure![:]",2017-08-21,8:00:00 AM,2017-08-25,5:00:00 PM,[:en]Canada Agriculture and Food Museum[:fr]Musée de l'agriculture et de l'alimentation du Canada[:],[:en]Canada Agriculture and Food Museum[:fr]Musée de l'agriculture et de l'alimentation du Canada[:],265,Summer Camps,[:en]http://cafmuseum.techno-science.ca/en/whats-on/fun-at-the-farm-camp.php[:fr]http://museeaac.techno-science.ca/fr/a-voir/camp-apprentis-cuisiniers.php[:],,,TRUE,TRUE,8|9|10,French|English,,Food,Online booking,CAFM-S17-029
[:en]Sprouting Chefs Camp[:fr]Camp Apprentis Cuisiniers[:],"[:en]Sprouting Chefs Camp is all about fun in the kitchen! Through hands-on entertaining and interactive cooking, little chefs learn the basics of food preparation, safe cooking, and healthy eating. While children create great food, they discover the important role agriculture plays in their everyday lives. They also learn to take care of indoor plants and an outdoor garden. This experience includes a visit to the farm animals to learn their role in this great adventure! [:fr]Ce camp culinaire amusant permet aux petits cuisiniers de se familiariser avec les principes de bases en cuisine, les techniques sécuritaires de préparation des aliments, l’alimentation santé et surtout, ils apprennent en créant des recettes amusantes et délicieuses et en réalisant l’importance de l’agriculture dans leur vie quotidienne. En plus d’activités culinaires interactives, les enfants prendront soin d’un jardin extérieur. L’expérience ne serait pas complète sans une visite des animaux de la ferme afin d’apprendre le rôle qu’ils jouent dans toute cette belle aventure![:]",2017-08-28,8:00:00 AM,2017-09-01,5:00:00 PM,[:en]Canada Agriculture and Food Museum[:fr]Musée de l'agriculture et de l'alimentation du Canada[:],[:en]Canada Agriculture and Food Museum[:fr]Musée de l'agriculture et de l'alimentation du Canada[:],265,Summer Camps,[:en]http://cafmuseum.techno-science.ca/en/whats-on/fun-at-the-farm-camp.php[:fr]http://museeaac.techno-science.ca/fr/a-voir/camp-apprentis-cuisiniers.php[:],,,TRUE,TRUE,8|9|10,French|English,,Food,Online booking,CAFM-S17-030
[:en]City Farm Camp[:fr]Camp fous de la ferme[:],"[:en]Campers get hands-on experience as they brush, feed, and clean rabbits. They also help to feed the sheep and tend their own garden. Campers have additional fun making ice cream and playing eco games in the Arboretum![:fr]Les campeurs apprennent à brosser les lapins, à les nourrir et à les nettoyer. Ils aident aussi à nourrir les moutons et s’occupent de leur propre jardin. Les participants de ce camp s’amusent également à faire de la crème glacée et à participer à des jeux écolos dans l’arboretum.[:]",2017-06-26,8:00:00 AM,2017-06-30,5:00:00 PM,[:en]Canada Agriculture and Food Museum[:fr]Musée de l'agriculture et de l'alimentation du Canada[:],[:en]Canada Agriculture and Food Museum[:fr]Musée de l'agriculture et de l'alimentation du Canada[:],265,Summer Camps,[:en]http://cafmuseum.techno-science.ca/en/whats-on/city-farm-camp.php[:fr]http://museeaac.techno-science.ca/fr/a-voir/camp-fous-de-la-ferme.php[:],,,TRUE,TRUE,9|10|11,French|English,,Nature and Outdoors,Online booking,CAFM-S17-031
[:en]City Farm Camp[:fr]Camp fous de la ferme[:],"[:en]Campers get hands-on experience as they brush, feed, and clean rabbits. They also help to feed the sheep and tend their own garden. Campers have additional fun making ice cream and playing eco games in the Arboretum![:fr]Les campeurs apprennent à brosser les lapins, à les nourrir et à les nettoyer. Ils aident aussi à nourrir les moutons et s’occupent de leur propre jardin. Les participants de ce camp s’amusent également à faire de la crème glacée et à participer à des jeux écolos dans l’arboretum.[:]",2017-07-04,8:00:00 AM,2017-07-07,5:00:00 PM,[:en]Canada Agriculture and Food Museum[:fr]Musée de l'agriculture et de l'alimentation du Canada[:],[:en]Canada Agriculture and Food Museum[:fr]Musée de l'agriculture et de l'alimentation du Canada[:],225,Summer Camps,[:en]http://cafmuseum.techno-science.ca/en/whats-on/city-farm-camp.php[:fr]http://museeaac.techno-science.ca/fr/a-voir/camp-fous-de-la-ferme.php[:],,,TRUE,TRUE,9|10|11,French|English,,Nature and Outdoors,Online booking,CAFM-S17-032
[:en]City Farm Camp[:fr]Camp fous de la ferme[:],"[:en]Campers get hands-on experience as they brush, feed, and clean rabbits. They also help to feed the sheep and tend their own garden. Campers have additional fun making ice cream and playing eco games in the Arboretum![:fr]Les campeurs apprennent à brosser les lapins, à les nourrir et à les nettoyer. Ils aident aussi à nourrir les moutons et s’occupent de leur propre jardin. Les participants de ce camp s’amusent également à faire de la crème glacée et à participer à des jeux écolos dans l’arboretum.[:]",2017-07-10,8:00:00 AM,2017-07-14,5:00:00 PM,[:en]Canada Agriculture and Food Museum[:fr]Musée de l'agriculture et de l'alimentation du Canada[:],[:en]Canada Agriculture and Food Museum[:fr]Musée de l'agriculture et de l'alimentation du Canada[:],265,Summer Camps,[:en]http://cafmuseum.techno-science.ca/en/whats-on/city-farm-camp.php[:fr]http://museeaac.techno-science.ca/fr/a-voir/camp-fous-de-la-ferme.php[:],,,TRUE,TRUE,9|10|11,French|English,,Nature and Outdoors,Online booking,CAFM-S17-033
[:en]City Farm Camp[:fr]Camp fous de la ferme[:],"[:en]Campers get hands-on experience as they brush, feed, and clean rabbits. They also help to feed the sheep and tend their own garden. Campers have additional fun making ice cream and playing eco games in the Arboretum![:fr]Les campeurs apprennent à brosser les lapins, à les nourrir et à les nettoyer. Ils aident aussi à nourrir les moutons et s’occupent de leur propre jardin. Les participants de ce camp s’amusent également à faire de la crème glacée et à participer à des jeux écolos dans l’arboretum.[:]",2017-07-17,8:00:00 AM,2017-07-21,5:00:00 PM,[:en]Canada Agriculture and Food Museum[:fr]Musée de l'agriculture et de l'alimentation du Canada[:],[:en]Canada Agriculture and Food Museum[:fr]Musée de l'agriculture et de l'alimentation du Canada[:],265,Summer Camps,[:en]http://cafmuseum.techno-science.ca/en/whats-on/city-farm-camp.php[:fr]http://museeaac.techno-science.ca/fr/a-voir/camp-fous-de-la-ferme.php[:],,,TRUE,TRUE,9|10|11,French|English,,Nature and Outdoors,Online booking,CAFM-S17-034
[:en]City Farm Camp[:fr]Camp fous de la ferme[:],"[:en]Campers get hands-on experience as they brush, feed, and clean rabbits. They also help to feed the sheep and tend their own garden. Campers have additional fun making ice cream and playing eco games in the Arboretum![:fr]Les campeurs apprennent à brosser les lapins, à les nourrir et à les nettoyer. Ils aident aussi à nourrir les moutons et s’occupent de leur propre jardin. Les participants de ce camp s’amusent également à faire de la crème glacée et à participer à des jeux écolos dans l’arboretum.[:]",2017-07-24,8:00:00 AM,2017-07-28,5:00:00 PM,[:en]Canada Agriculture and Food Museum[:fr]Musée de l'agriculture et de l'alimentation du Canada[:],[:en]Canada Agriculture and Food Museum[:fr]Musée de l'agriculture et de l'alimentation du Canada[:],265,Summer Camps,[:en]http://cafmuseum.techno-science.ca/en/whats-on/city-farm-camp.php[:fr]http://museeaac.techno-science.ca/fr/a-voir/camp-fous-de-la-ferme.php[:],,,TRUE,TRUE,9|10|11,French|English,,Nature and Outdoors,Online booking,CAFM-S17-035
[:en]City Farm Camp[:fr]Camp fous de la ferme[:],"[:en]Campers get hands-on experience as they brush, feed, and clean rabbits. They also help to feed the sheep and tend their own garden. Campers have additional fun making ice cream and playing eco games in the Arboretum![:fr]Les campeurs apprennent à brosser les lapins, à les nourrir et à les nettoyer. Ils aident aussi à nourrir les moutons et s’occupent de leur propre jardin. Les participants de ce camp s’amusent également à faire de la crème glacée et à participer à des jeux écolos dans l’arboretum.[:]",2017-07-31,8:00:00 AM,2017-08-04,5:00:00 PM,[:en]Canada Agriculture and Food Museum[:fr]Musée de l'agriculture et de l'alimentation du Canada[:],[:en]Canada Agriculture and Food Museum[:fr]Musée de l'agriculture et de l'alimentation du Canada[:],265,Summer Camps,[:en]http://cafmuseum.techno-science.ca/en/whats-on/city-farm-camp.php[:fr]http://museeaac.techno-science.ca/fr/a-voir/camp-fous-de-la-ferme.php[:],,,TRUE,TRUE,9|10|11,French|English,,Nature and Outdoors,Online booking,CAFM-S17-036
[:en]City Farm Camp[:fr]Camp fous de la ferme[:],"[:en]Campers get hands-on experience as they brush, feed, and clean rabbits. They also help to feed the sheep and tend their own garden. Campers have additional fun making ice cream and playing eco games in the Arboretum![:fr]Les campeurs apprennent à brosser les lapins, à les nourrir et à les nettoyer. Ils aident aussi à nourrir les moutons et s’occupent de leur propre jardin. Les participants de ce camp s’amusent également à faire de la crème glacée et à participer à des jeux écolos dans l’arboretum.[:]",2017-08-08,8:00:00 AM,2017-08-11,5:00:00 PM,[:en]Canada Agriculture and Food Museum[:fr]Musée de l'agriculture et de l'alimentation du Canada[:],[:en]Canada Agriculture and Food Museum[:fr]Musée de l'agriculture et de l'alimentation du Canada[:],225,Summer Camps,[:en]http://cafmuseum.techno-science.ca/en/whats-on/city-farm-camp.php[:fr]http://museeaac.techno-science.ca/fr/a-voir/camp-fous-de-la-ferme.php[:],,,TRUE,TRUE,9|10|11,French|English,,Nature and Outdoors,Online booking,CAFM-S17-037
[:en]City Farm Camp[:fr]Camp fous de la ferme[:],"[:en]Campers get hands-on experience as they brush, feed, and clean rabbits. They also help to feed the sheep and tend their own garden. Campers have additional fun making ice cream and playing eco games in the Arboretum![:fr]Les campeurs apprennent à brosser les lapins, à les nourrir et à les nettoyer. Ils aident aussi à nourrir les moutons et s’occupent de leur propre jardin. Les participants de ce camp s’amusent également à faire de la crème glacée et à participer à des jeux écolos dans l’arboretum.[:]",2017-08-14,8:00:00 AM,2017-08-18,5:00:00 PM,[:en]Canada Agriculture and Food Museum[:fr]Musée de l'agriculture et de l'alimentation du Canada[:],[:en]Canada Agriculture and Food Museum[:fr]Musée de l'agriculture et de l'alimentation du Canada[:],265,Summer Camps,[:en]http://cafmuseum.techno-science.ca/en/whats-on/city-farm-camp.php[:fr]http://museeaac.techno-science.ca/fr/a-voir/camp-fous-de-la-ferme.php[:],,,TRUE,TRUE,9|10|11,French|English,,Nature and Outdoors,Online booking,CAFM-S17-038
[:en]City Farm Camp[:fr]Camp fous de la ferme[:],"[:en]Campers get hands-on experience as they brush, feed, and clean rabbits. They also help to feed the sheep and tend their own garden. Campers have additional fun making ice cream and playing eco games in the Arboretum![:fr]Les campeurs apprennent à brosser les lapins, à les nourrir et à les nettoyer. Ils aident aussi à nourrir les moutons et s’occupent de leur propre jardin. Les participants de ce camp s’amusent également à faire de la crème glacée et à participer à des jeux écolos dans l’arboretum.[:]",2017-08-21,8:00:00 AM,2017-08-25,5:00:00 PM,[:en]Canada Agriculture and Food Museum[:fr]Musée de l'agriculture et de l'alimentation du Canada[:],[:en]Canada Agriculture and Food Museum[:fr]Musée de l'agriculture et de l'alimentation du Canada[:],265,Summer Camps,[:en]http://cafmuseum.techno-science.ca/en/whats-on/city-farm-camp.php[:fr]http://museeaac.techno-science.ca/fr/a-voir/camp-fous-de-la-ferme.php[:],,,TRUE,TRUE,9|10|11,French|English,,Nature and Outdoors,Online booking,CAFM-S17-039
[:en]City Farm Camp[:fr]Camp fous de la ferme[:],"[:en]Campers get hands-on experience as they brush, feed, and clean rabbits. They also help to feed the sheep and tend their own garden. Campers have additional fun making ice cream and playing eco games in the Arboretum![:fr]Les campeurs apprennent à brosser les lapins, à les nourrir et à les nettoyer. Ils aident aussi à nourrir les moutons et s’occupent de leur propre jardin. Les participants de ce camp s’amusent également à faire de la crème glacée et à participer à des jeux écolos dans l’arboretum.[:]",2017-08-28,8:00:00 AM,2017-09-01,5:00:00 PM,[:en]Canada Agriculture and Food Museum[:fr]Musée de l'agriculture et de l'alimentation du Canada[:],[:en]Canada Agriculture and Food Museum[:fr]Musée de l'agriculture et de l'alimentation du Canada[:],265,Summer Camps,[:en]http://cafmuseum.techno-science.ca/en/whats-on/city-farm-camp.php[:fr]http://museeaac.techno-science.ca/fr/a-voir/camp-fous-de-la-ferme.php[:],,,TRUE,TRUE,9|10|11,French|English,,Nature and Outdoors,Online booking,CAFM-S17-040
[:en]Junior Farmer Camp[:fr]Camp agriculteurs en herbe[:],"[:en]Perfect for “farmers-in-the-making” who live in the city, this camp offers youth a chance to take part in a real, working farm! Campers “adopt” a calf, feed and groom it, muck out the stalls, and learn more about the agriculture industry.[:fr]Ce camp est tout indiqué pour les agriculteurs en herbe qui vivent en ville. Voici l’occasion pour les jeunes de participer au fonctionnement d’une vraie ferme! Ils « adoptent » un veau, le nourrissent, en prennent soin, nettoient les stalles et en apprennent sur l’industrie agricole.[:]",2017-06-26,8:00:00 AM,2017-06-30,5:00:00 PM,[:en]Canada Agriculture and Food Museum[:fr]Musée de l'agriculture et de l'alimentation du Canada[:],[:en]Canada Agriculture and Food Museum[:fr]Musée de l'agriculture et de l'alimentation du Canada[:],265,Summer Camps,[:en]http://cafmuseum.techno-science.ca/en/whats-on/city-farm-camp.php[:fr]http://museeaac.techno-science.ca/fr/a-voir/camp-fous-de-la-ferme.php[:],,,TRUE,TRUE,12|13|14,French|English,,Nature and Outdoors,Online booking,CAFM-S17-041
[:en]Junior Farmer Camp[:fr]Camp agriculteurs en herbe[:],"[:en]Perfect for “farmers-in-the-making” who live in the city, this camp offers youth a chance to take part in a real, working farm! Campers “adopt” a calf, feed and groom it, muck out the stalls, and learn more about the agriculture industry.[:fr]Ce camp est tout indiqué pour les agriculteurs en herbe qui vivent en ville. Voici l’occasion pour les jeunes de participer au fonctionnement d’une vraie ferme! Ils « adoptent » un veau, le nourrissent, en prennent soin, nettoient les stalles et en apprennent sur l’industrie agricole.[:]",2017-07-04,8:00:00 AM,2017-07-07,5:00:00 PM,[:en]Canada Agriculture and Food Museum[:fr]Musée de l'agriculture et de l'alimentation du Canada[:],[:en]Canada Agriculture and Food Museum[:fr]Musée de l'agriculture et de l'alimentation du Canada[:],225,Summer Camps,[:en]http://cafmuseum.techno-science.ca/en/whats-on/city-farm-camp.php[:fr]http://museeaac.techno-science.ca/fr/a-voir/camp-fous-de-la-ferme.php[:],,,TRUE,TRUE,12|13|14,French|English,,Nature and Outdoors,Online booking,CAFM-S17-042
[:en]Junior Farmer Camp[:fr]Camp agriculteurs en herbe[:],"[:en]Perfect for “farmers-in-the-making” who live in the city, this camp offers youth a chance to take part in a real, working farm! Campers “adopt” a calf, feed and groom it, muck out the stalls, and learn more about the agriculture industry.[:fr]Ce camp est tout indiqué pour les agriculteurs en herbe qui vivent en ville. Voici l’occasion pour les jeunes de participer au fonctionnement d’une vraie ferme! Ils « adoptent » un veau, le nourrissent, en prennent soin, nettoient les stalles et en apprennent sur l’industrie agricole.[:]",2017-07-10,8:00:00 AM,2017-07-14,5:00:00 PM,[:en]Canada Agriculture and Food Museum[:fr]Musée de l'agriculture et de l'alimentation du Canada[:],[:en]Canada Agriculture and Food Museum[:fr]Musée de l'agriculture et de l'alimentation du Canada[:],265,Summer Camps,[:en]http://cafmuseum.techno-science.ca/en/whats-on/city-farm-camp.php[:fr]http://museeaac.techno-science.ca/fr/a-voir/camp-fous-de-la-ferme.php[:],,,TRUE,TRUE,12|13|14,French|English,,Nature and Outdoors,Online booking,CAFM-S17-043
[:en]Junior Farmer Camp[:fr]Camp agriculteurs en herbe[:],"[:en]Perfect for “farmers-in-the-making” who live in the city, this camp offers youth a chance to take part in a real, working farm! Campers “adopt” a calf, feed and groom it, muck out the stalls, and learn more about the agriculture industry.[:fr]Ce camp est tout indiqué pour les agriculteurs en herbe qui vivent en ville. Voici l’occasion pour les jeunes de participer au fonctionnement d’une vraie ferme! Ils « adoptent » un veau, le nourrissent, en prennent soin, nettoient les stalles et en apprennent sur l’industrie agricole.[:]",2017-07-17,8:00:00 AM,2017-07-21,5:00:00 PM,[:en]Canada Agriculture and Food Museum[:fr]Musée de l'agriculture et de l'alimentation du Canada[:],[:en]Canada Agriculture and Food Museum[:fr]Musée de l'agriculture et de l'alimentation du Canada[:],265,Summer Camps,[:en]http://cafmuseum.techno-science.ca/en/whats-on/city-farm-camp.php[:fr]http://museeaac.techno-science.ca/fr/a-voir/camp-fous-de-la-ferme.php[:],,,TRUE,TRUE,12|13|14,French|English,,Nature and Outdoors,Online booking,CAFM-S17-044
[:en]Junior Farmer Camp[:fr]Camp agriculteurs en herbe[:],"[:en]Perfect for “farmers-in-the-making” who live in the city, this camp offers youth a chance to take part in a real, working farm! Campers “adopt” a calf, feed and groom it, muck out the stalls, and learn more about the agriculture industry.[:fr]Ce camp est tout indiqué pour les agriculteurs en herbe qui vivent en ville. Voici l’occasion pour les jeunes de participer au fonctionnement d’une vraie ferme! Ils « adoptent » un veau, le nourrissent, en prennent soin, nettoient les stalles et en apprennent sur l’industrie agricole.[:]",2017-07-24,8:00:00 AM,2017-07-28,5:00:00 PM,[:en]Canada Agriculture and Food Museum[:fr]Musée de l'agriculture et de l'alimentation du Canada[:],[:en]Canada Agriculture and Food Museum[:fr]Musée de l'agriculture et de l'alimentation du Canada[:],265,Summer Camps,[:en]http://cafmuseum.techno-science.ca/en/whats-on/city-farm-camp.php[:fr]http://museeaac.techno-science.ca/fr/a-voir/camp-fous-de-la-ferme.php[:],,,TRUE,TRUE,12|13|14,French|English,,Nature and Outdoors,Online booking,CAFM-S17-045
[:en]Junior Farmer Camp[:fr]Camp agriculteurs en herbe[:],"[:en]Perfect for “farmers-in-the-making” who live in the city, this camp offers youth a chance to take part in a real, working farm! Campers “adopt” a calf, feed and groom it, muck out the stalls, and learn more about the agriculture industry.[:fr]Ce camp est tout indiqué pour les agriculteurs en herbe qui vivent en ville. Voici l’occasion pour les jeunes de participer au fonctionnement d’une vraie ferme! Ils « adoptent » un veau, le nourrissent, en prennent soin, nettoient les stalles et en apprennent sur l’industrie agricole.[:]",2017-07-31,8:00:00 AM,2017-08-04,5:00:00 PM,[:en]Canada Agriculture and Food Museum[:fr]Musée de l'agriculture et de l'alimentation du Canada[:],[:en]Canada Agriculture and Food Museum[:fr]Musée de l'agriculture et de l'alimentation du Canada[:],265,Summer Camps,[:en]http://cafmuseum.techno-science.ca/en/whats-on/city-farm-camp.php[:fr]http://museeaac.techno-science.ca/fr/a-voir/camp-fous-de-la-ferme.php[:],,,TRUE,TRUE,12|13|14,French|English,,Nature and Outdoors,Online booking,CAFM-S17-046
[:en]Junior Farmer Camp[:fr]Camp agriculteurs en herbe[:],"[:en]Perfect for “farmers-in-the-making” who live in the city, this camp offers youth a chance to take part in a real, working farm! Campers “adopt” a calf, feed and groom it, muck out the stalls, and learn more about the agriculture industry.[:fr]Ce camp est tout indiqué pour les agriculteurs en herbe qui vivent en ville. Voici l’occasion pour les jeunes de participer au fonctionnement d’une vraie ferme! Ils « adoptent » un veau, le nourrissent, en prennent soin, nettoient les stalles et en apprennent sur l’industrie agricole.[:]",2017-08-08,8:00:00 AM,2017-08-11,5:00:00 PM,[:en]Canada Agriculture and Food Museum[:fr]Musée de l'agriculture et de l'alimentation du Canada[:],[:en]Canada Agriculture and Food Museum[:fr]Musée de l'agriculture et de l'alimentation du Canada[:],225,Summer Camps,[:en]http://cafmuseum.techno-science.ca/en/whats-on/city-farm-camp.php[:fr]http://museeaac.techno-science.ca/fr/a-voir/camp-fous-de-la-ferme.php[:],,,TRUE,TRUE,12|13|14,French|English,,Nature and Outdoors,Online booking,CAFM-S17-047
[:en]Junior Farmer Camp[:fr]Camp agriculteurs en herbe[:],"[:en]Perfect for “farmers-in-the-making” who live in the city, this camp offers youth a chance to take part in a real, working farm! Campers “adopt” a calf, feed and groom it, muck out the stalls, and learn more about the agriculture industry.[:fr]Ce camp est tout indiqué pour les agriculteurs en herbe qui vivent en ville. Voici l’occasion pour les jeunes de participer au fonctionnement d’une vraie ferme! Ils « adoptent » un veau, le nourrissent, en prennent soin, nettoient les stalles et en apprennent sur l’industrie agricole.[:]",2017-08-14,8:00:00 AM,2017-08-18,5:00:00 PM,[:en]Canada Agriculture and Food Museum[:fr]Musée de l'agriculture et de l'alimentation du Canada[:],[:en]Canada Agriculture and Food Museum[:fr]Musée de l'agriculture et de l'alimentation du Canada[:],265,Summer Camps,[:en]http://cafmuseum.techno-science.ca/en/whats-on/city-farm-camp.php[:fr]http://museeaac.techno-science.ca/fr/a-voir/camp-fous-de-la-ferme.php[:],,,TRUE,TRUE,12|13|14,French|English,,Nature and Outdoors,Online booking,CAFM-S17-048
[:en]Junior Farmer Camp[:fr]Camp agriculteurs en herbe[:],"[:en]Perfect for “farmers-in-the-making” who live in the city, this camp offers youth a chance to take part in a real, working farm! Campers “adopt” a calf, feed and groom it, muck out the stalls, and learn more about the agriculture industry.[:fr]Ce camp est tout indiqué pour les agriculteurs en herbe qui vivent en ville. Voici l’occasion pour les jeunes de participer au fonctionnement d’une vraie ferme! Ils « adoptent » un veau, le nourrissent, en prennent soin, nettoient les stalles et en apprennent sur l’industrie agricole.[:]",2017-08-21,8:00:00 AM,2017-08-25,5:00:00 PM,[:en]Canada Agriculture and Food Museum[:fr]Musée de l'agriculture et de l'alimentation du Canada[:],[:en]Canada Agriculture and Food Museum[:fr]Musée de l'agriculture et de l'alimentation du Canada[:],265,Summer Camps,[:en]http://cafmuseum.techno-science.ca/en/whats-on/city-farm-camp.php[:fr]http://museeaac.techno-science.ca/fr/a-voir/camp-fous-de-la-ferme.php[:],,,TRUE,TRUE,12|13|14,French|English,,Nature and Outdoors,Online booking,CAFM-S17-049
[:en]Junior Farmer Camp[:fr]Camp agriculteurs en herbe[:],"[:en]Perfect for “farmers-in-the-making” who live in the city, this camp offers youth a chance to take part in a real, working farm! Campers “adopt” a calf, feed and groom it, muck out the stalls, and learn more about the agriculture industry.[:fr]Ce camp est tout indiqué pour les agriculteurs en herbe qui vivent en ville. Voici l’occasion pour les jeunes de participer au fonctionnement d’une vraie ferme! Ils « adoptent » un veau, le nourrissent, en prennent soin, nettoient les stalles et en apprennent sur l’industrie agricole.[:]",2017-08-28,8:00:00 AM,2017-09-01,5:00:00 PM,[:en]Canada Agriculture and Food Museum[:fr]Musée de l'agriculture et de l'alimentation du Canada[:],[:en]Canada Agriculture and Food Museum[:fr]Musée de l'agriculture et de l'alimentation du Canada[:],265,Summer Camps,[:en]http://cafmuseum.techno-science.ca/en/whats-on/city-farm-camp.php[:fr]http://museeaac.techno-science.ca/fr/a-voir/camp-fous-de-la-ferme.php[:],,,TRUE,TRUE,12|13|14,French|English,,Nature and Outdoors,Online booking,CAFM-S17-050