Event Name,Event Description,Event Start Date,Event Start Time,Event End Date,Event End Time,Event Venue Name,Event Organizers,Event Cost,Event Category,Event Website,Event Featured Image,Event Tags,Event Show Map Link,Event Show Map,Age,Language,Category,Theme,Options,External ID
[:en]Minecraft Hacking and Making Minecraft Pi[:fr]Minecraft Hacking and Making Minecraft Pi[:],"[:en]In this program students, will be introduced to Minecraft Pi and learn how to hack it and make like a pro. Students will learn about writing code in Python as they create mods for Minecraft. They will learn how to create custom mods, make mini games, build custom worlds, add natural disasters. This program includes a free raspberry pi for students to keep.[:fr]In this program students, will be introduced to Minecraft Pi and learn how to hack it and make like a pro. Students will learn about writing code in Python as they create mods for Minecraft. They will learn how to create custom mods, make mini games, build custom worlds, add natural disasters. This program includes a free raspberry pi for students to keep.<div class=""translatedText"">""Dans ce programme les étudiants, sera présenté à Minecraft Pi et apprendre à pirater et de faire comme un pro. Les élèves apprendront à écrire du code en Python car ils créent des mods pour Minecraft. Ils apprendront comment créer des mods personnalisés, faire des mini jeux, construire des mondes personnalisés, ajouter des catastrophes naturelles. Ce programme comprend une pi de framboise gratuit pour les étudiants à garder.</div>[:]",7/10/2017,9:00:00 AM,7/14/2017,4:00:00 PM,Old Town Hall,LevelUP,399,Summer Camps,[:en]https://levelupkids.ca/program/529[:fr]https://levelupkids.ca/program/529[:],,programming,TRUE,TRUE,8|9|10|11|12,English,,Science and Technology,Online booking,LEVELUP-S17-001
[:en]Web Development[:fr]Web Development[:],"[:en]In this unit, students will go through a high-level introduction to HTML, CSS, and the processes involved in viewing web pages on the internet. Students will create several simple web pages using the CodeHS online editor to gain practice using the various features of HTML and CSS.[:fr]In this unit, students will go through a high-level introduction to HTML, CSS, and the processes involved in viewing web pages on the internet. Students will create several simple web pages using the CodeHS online editor to gain practice using the various features of HTML and CSS.<div class=""translatedText"">""Dans cette unité, les étudiants passeront par une introduction de haut niveau en HTML, CSS et les processus impliqués dans l'affichage des pages Web sur Internet. Les étudiants vont créer plusieurs pages web simples à l'aide du CodeHS éditeur en ligne pour obtenir la pratique en utilisant les différentes fonctionnalités de HTML et CSS.</div>[:]",7/17/2017,9:00:00 AM,7/21/2017,4:00:00 PM,Old Town Hall,LevelUP,399,Summer Camps,[:en]https://levelupkids.ca/program/530[:fr]https://levelupkids.ca/program/530[:],,programming,TRUE,TRUE,12|13|14|15,English,,Science and Technology,Online booking,LEVELUP-S17-002
[:en]Adventures in Programming[:fr]Adventures in Programming[:],"[:en]Campers will learn about fundamentals of hardware and software and be introduced to a variety of programming languages and concepts. Campers will learn programming using a Raspberry Pi which is a credit card-sized single board computer.

Students will complete programming by:

Modding Minecraft PI
Making games with Scratch
Making games with Python
Making Music

Students take home their Raspberry Pi3. (Monitor and keyboard are not included, but it will work with any tv or monitor with a HDMI input) to continue programming their computer or they can sign up for additional courses to continue building and programming additional components to their computer.[:fr]Campers will learn about fundamentals of hardware and software and be introduced to a variety of programming languages and concepts. Campers will learn programming using a Raspberry Pi which is a credit card-sized single board computer.

Students will complete programming by:

Modding Minecraft PI
Making games with Scratch
Making games with Python
Making Music

Students take home their Raspberry Pi3. (Monitor and keyboard are not included, but it will work with any tv or monitor with a HDMI input) to continue programming their computer or they can sign up for additional courses to continue building and programming additional components to their computer.<div class=""translatedText"">""Les campeurs apprendront sur les fondamentaux du matériel et des logiciels et être mis en place à une variété de langages de programmation et les concepts. Les campeurs apprendront la programmation en utilisant un Raspberry Pi qui est une carte de crédit taille ordinateur monocarte.

Les étudiants compléteront la programmation par:

Modding Minecraft PI
Faire des jeux avec Scratch
Faire des jeux avec Python
Faire de la musique

Les étudiants prennent leur maison Raspberry Pi3. (Moniteur et le clavier ne sont pas inclus, mais il fonctionnera avec un téléviseur ou un moniteur avec une entrée HDMI) pour poursuivre la programmation de leur ordinateur ou ils peuvent vous inscrire à des cours supplémentaires pour poursuivre la construction et la programmation des composants supplémentaires à leur ordinateur.</div>[:]",7/24/2017,9:00:00 AM,7/28/2017,4:00:00 PM,Old Town Hall,LevelUP,399,Summer Camps,[:en]https://levelupkids.ca/program/531[:fr]https://levelupkids.ca/program/531[:],,programming,TRUE,TRUE,8|9|10,English,,Science and Technology,Online booking,LEVELUP-S17-003
[:en]Intro to Programming[:fr]Intro to Programming[:],"[:en]Campers will be introduced to programming using a Raspberry Pi.

They will learn how to update and change an OS.

Campers will be introduced to:

Make games with Python
Modding with Minecraft Pi
Html and CSS
The Internet of Things

Students take home their Raspberry Pi3. (Monitor and keyboard are not included, but it will work with any tv or monitor with a HDMI input) to continue programming their computer or they can sign up for additional courses to continue building and programming additional components to their computer.[:fr]Campers will be introduced to programming using a Raspberry Pi.

They will learn how to update and change an OS.

Campers will be introduced to:

Make games with Python
Modding with Minecraft Pi
Html and CSS
The Internet of Things

Students take home their Raspberry Pi3. (Monitor and keyboard are not included, but it will work with any tv or monitor with a HDMI input) to continue programming their computer or they can sign up for additional courses to continue building and programming additional components to their computer.<div class=""translatedText"">""Les campeurs seront initiés à la programmation en utilisant un Raspberry Pi.

Ils apprendront comment mettre à jour et modifier un système d'exploitation.

Les campeurs seront initiés à:

Faire des jeux avec Python
Modding avec Minecraft Pi
HTML et CSS
L'Internet des objets

Les étudiants prennent leur maison Raspberry Pi3. (Moniteur et le clavier ne sont pas inclus, mais il fonctionnera avec un téléviseur ou un moniteur avec une entrée HDMI) pour poursuivre la programmation de leur ordinateur ou ils peuvent vous inscrire à des cours supplémentaires pour poursuivre la construction et la programmation des composants supplémentaires à leur ordinateur.</div>[:]",7/24/2017,9:00:00 AM,7/28/2017,4:00:00 PM,Old Town Hall,LevelUP,399,Summer Camps,[:en]https://levelupkids.ca/program/532[:fr]https://levelupkids.ca/program/532[:],,programming,TRUE,TRUE,10|11|12|13|14,English,,Science and Technology,Online booking,LEVELUP-S17-004
[:en]Minecraft Hacking and Making Minecraft Pi[:fr]Minecraft Hacking and Making Minecraft Pi[:],"[:en]In this program students, will be introduced to Minecraft Pi and learn how to hack it and make like a pro. Students will learn about writing code in Python as they create mods for Minecraft. They will learn how to create custom mods, make mini games, build custom worlds, add natural disasters. This program includes a free raspberry pi for students to keep.[:fr]In this program students, will be introduced to Minecraft Pi and learn how to hack it and make like a pro. Students will learn about writing code in Python as they create mods for Minecraft. They will learn how to create custom mods, make mini games, build custom worlds, add natural disasters. This program includes a free raspberry pi for students to keep.<div class=""translatedText"">""Dans ce programme les étudiants, sera présenté à Minecraft Pi et apprendre à pirater et de faire comme un pro. Les élèves apprendront à écrire du code en Python car ils créent des mods pour Minecraft. Ils apprendront comment créer des mods personnalisés, faire des mini jeux, construire des mondes personnalisés, ajouter des catastrophes naturelles. Ce programme comprend une pi de framboise gratuit pour les étudiants à garder.</div>[:]",7/31/2017,9:00:00 AM,8/4/2017,4:00:00 PM,Old Town Hall,LevelUP,399,Summer Camps,[:en]https://levelupkids.ca/program/533[:fr]https://levelupkids.ca/program/533[:],,programming,TRUE,TRUE,8|9|10|11|12,English,,Science and Technology,Online booking,LEVELUP-S17-005
[:en]Raspberry Pi Robotics[:fr]Raspberry Pi Robotics[:],"[:en]In this program, campers will learn about programming with raspberry pi, and robotics. They will program and keep a Raspberry Pi-powered robot. They will learn how to build the robot, run the motors, drive and turn and write programs for the robot to follow lines or avoid obstacles. When they aren?t building their robot they will be able to explore other programming languages and tools available on the Raspberry Pi. Students get to keep the Raspberry Pi and the Robot kit. Please note the robot chassis actually uses the box that it comes in. Additional chassis are available for purchase online.[:fr]In this program, campers will learn about programming with raspberry pi, and robotics. They will program and keep a Raspberry Pi-powered robot. They will learn how to build the robot, run the motors, drive and turn and write programs for the robot to follow lines or avoid obstacles. When they aren?t building their robot they will be able to explore other programming languages and tools available on the Raspberry Pi. Students get to keep the Raspberry Pi and the Robot kit. Please note the robot chassis actually uses the box that it comes in. Additional chassis are available for purchase online.<div class=""translatedText"">""Dans ce programme, les campeurs apprendront sur la programmation avec pi de framboise, et la robotique. Ils programmeront et de garder un robot alimenté par Pi framboise. Ils apprendront comment construire le robot, exécutez les moteurs, d'entraînement et tourner et écrire des programmes pour le robot de suivre les lignes ou éviter les obstacles. Quand ils arent la construction de leur robot, ils seront en mesure d'explorer d'autres langages de programmation et des outils disponibles sur le Raspberry Pi. Les élèves apprennent à garder le Raspberry Pi et le kit de robot. S'il vous plaît noter que le châssis de robot utilise en fait la boîte qu'il arrive. Châssis supplémentaires sont disponibles à l'achat en ligne.</div>[:]",8/14/2017,9:00:00 AM,8/18/2017,4:00:00 PM,Old Town Hall,LevelUP,399,Summer Camps,[:en]https://levelupkids.ca/program/534[:fr]https://levelupkids.ca/program/534[:],,programming,TRUE,TRUE,10|11|12|13|14|15,English,,Science and Technology,Online booking,LEVELUP-S17-006
[:en]Minecraft Adventure[:fr]Minecraft Adventure[:],"[:en]Campers will create, explore, and put their problem-solving skills to the test by building maps and creating resource packs in Minecraft. Then, they'll take control of their world with command blocks and redstone. Rather than just 'playing' Minecraft, students learn TO think critically about storytelling AND player engagement. Minecraft teaches SPATIAL reasoning AND engineering principles. WITH guided instruction, students can move beyond SIMPLE gameplay AND discover fundamental game programming concepts such AS Redstone levers AND command blocks.Outside play, sports, AND other activities are also a part of the FULL camp experience.

Students IN these Minecraft game design courses will go home WITH their Minecraft saves AND resource pack folder.
An active PC or MAC Minecraft account and password are required for this camp. If you do not have one, the game can be purchased at http://www.minecraft.net.
Please note that Minecraft accounts for xbox, and mobile devices do not work on computers.[:fr]Campers will create, explore, and put their problem-solving skills to the test by building maps and creating resource packs in Minecraft. Then, they'll take control of their world with command blocks and redstone. Rather than just 'playing' Minecraft, students learn TO think critically about storytelling AND player engagement. Minecraft teaches SPATIAL reasoning AND engineering principles. WITH guided instruction, students can move beyond SIMPLE gameplay AND discover fundamental game programming concepts such AS Redstone levers AND command blocks.Outside play, sports, AND other activities are also a part of the FULL camp experience.

Students IN these Minecraft game design courses will go home WITH their Minecraft saves AND resource pack folder.
An active PC or MAC Minecraft account and password are required for this camp. If you do not have one, the game can be purchased at http://www.minecraft.net.
Please note that Minecraft accounts for xbox, and mobile devices do not work on computers.<div class=""translatedText"">""Les campeurs vont créer, explorer et mettre leurs compétences en résolution de problèmes à l'épreuve par la création de cartes et de créer des packs de ressources dans Minecraft. Ensuite, ils vont prendre le contrôle de leur monde avec des blocs de commande et Redstone. Plutôt que de simplement « jouer » Minecraft, les élèves apprennent à penser de manière critique la narration et l'engagement des joueurs. Minecraft enseigne les principes de raisonnement spatial et d'ingénierie. L'instruction guidée, les élèves peuvent aller au-delà gameplay simple et découvrir les concepts de programmation de jeu fondamentaux tels que les leviers Redstone et le jeu commande blocks.Outside, sports et autres activités font également partie de l'expérience du camp COMPLET.

Les élèves de ces cours de conception de jeu Minecraft vont rentrer à la maison avec leur Minecraft sauve et le dossier pack de ressources.
Un PC actif ou d'un compte MAC Minecraft et mot de passe sont nécessaires pour ce camp. Si vous n'avez pas, le jeu peut être acheté à http://www.minecraft.net.
S'il vous plaît noter que les comptes Minecraft pour xbox et les appareils mobiles ne fonctionnent pas sur les ordinateurs.</div>[:]",7/4/2017,9:00:00 AM,7/7/2017,4:00:00 PM,Community Life,LevelUP,259,Summer Camps,[:en]https://levelupkids.ca/program/324[:fr]https://levelupkids.ca/program/324[:],,programming,TRUE,TRUE,8|9|10|11,English,,Science and Technology,Online booking,LEVELUP-S17-007
[:en]Intro to Java Coding: Modding With Minecraft & Forge[:fr]Intro to Java Coding: Modding With Minecraft & Forge[:],"[:en]Campers will dig into Minecraft to explore the fundamentals of the Java programming language by creating custom blocks, items, and mods with Minecraft Forge.

Students will create Minecraft Mods, Custom AI, and custom blocks while building their own playable  game server.

Students will learn to:
Create Minecraft mods
Installing Forge
Creating and sharing their own game multi-game server
Create custom creatures and AI behaviors
Create new block types
Top Skills Gained
Software & Hardware Skills Development

Minecraft
Java
What will students take home?
Students will go home with their Mod Workspace and a mod .jar file.

An active PC or MAC Minecraft account and password are required for this camp. If you do not have one, the game can be purchased at http://www.minecraft.net.

Please note that Minecraft accounts for xbox, and mobile devices do not work on computers.[:fr]Campers will dig into Minecraft to explore the fundamentals of the Java programming language by creating custom blocks, items, and mods with Minecraft Forge.

Students will create Minecraft Mods, Custom AI, and custom blocks while building their own playable  game server.

Students will learn to:
Create Minecraft mods
Installing Forge
Creating and sharing their own game multi-game server
Create custom creatures and AI behaviors
Create new block types
Top Skills Gained
Software & Hardware Skills Development

Minecraft
Java
What will students take home?
Students will go home with their Mod Workspace and a mod .jar file.

An active PC or MAC Minecraft account and password are required for this camp. If you do not have one, the game can be purchased at http://www.minecraft.net.

Please note that Minecraft accounts for xbox, and mobile devices do not work on computers.<div class=""translatedText"">""Les campeurs vont creuser dans Minecraft pour explorer les fondamentaux du langage de programmation Java en créant des blocs personnalisés, des objets et mods avec Minecraft Forge.

Les étudiants vont créer Minecraft Mods, AI personnalisés et des blocs personnalisés tout en construisant leur propre serveur de jeu jouable.

Les élèves apprendront à:
Créer Minecraft mods
Installation Forge
Créer et partager leur propre serveur multi-jeu de jeu
Créer des créatures personnalisées et comportements AI
Créer de nouveaux types de blocs
Compétences Top OBTENU DES
Logiciels et matériel du Développement des compétences

Minecraft
Java
Que vont les étudiants ramener à la maison?
Les étudiants rentreront chez eux avec leur espace de travail Mod et un fichier .jar mod.

Un PC actif ou d'un compte MAC Minecraft et mot de passe sont nécessaires pour ce camp. Si vous n'avez pas, le jeu peut être acheté à http://www.minecraft.net.

S'il vous plaît noter que les comptes Minecraft pour xbox et les appareils mobiles ne fonctionnent pas sur les ordinateurs.</div>[:]",7/10/2017,9:00:00 AM,7/14/2017,4:00:00 PM,Community Life,LevelUP,299,Summer Camps,[:en]https://levelupkids.ca/program/325[:fr]https://levelupkids.ca/program/325[:],,programming,TRUE,TRUE,10|11|12|13|14,English,,Science and Technology,Online booking,LEVELUP-S17-008
[:en]Game Design and Development with Scratch[:fr]Game Design and Development with Scratch[:],"[:en]Get a fun introduction to computer science. Make your own animations and video games using Scratch. 
Does your child love playing video games? In this course, students learn through guided play. The camp setting is hands-on and collaborative, without the pressure to complete assignments. The experience is centered on fun and discovery. Scratch is user-friendly, allowing kids to easily harness the power of coding

Students will bring home their Scratch login information to access their games online.[:fr]Get a fun introduction to computer science. Make your own animations and video games using Scratch. 
Does your child love playing video games? In this course, students learn through guided play. The camp setting is hands-on and collaborative, without the pressure to complete assignments. The experience is centered on fun and discovery. Scratch is user-friendly, allowing kids to easily harness the power of coding

Students will bring home their Scratch login information to access their games online.<div class=""translatedText"">""Obtenez une introduction amusante à la science informatique. Faites vos propres animations et des jeux vidéo en utilisant Scratch.
Est-ce que votre enfant aime jouer à des jeux vidéo? Dans ce cours, les élèves apprennent par le jeu guidée. Le réglage du camp est pratique et de collaboration, sans la pression pour terminer les travaux. L'expérience est centrée sur le plaisir et la découverte. Scratch est convivial, permettant aux enfants d'exploiter facilement la puissance de codage

Les élèves repartiront avec leurs informations de connexion Scratch pour accéder à leurs jeux en ligne.</div>[:]",7/17/2017,9:00:00 AM,7/21/2017,4:00:00 PM,Community Life,LevelUP,299,Summer Camps,[:en]https://levelupkids.ca/program/326[:fr]https://levelupkids.ca/program/326[:],,programming,TRUE,TRUE,8|9|10,English,,Science and Technology,Online booking,LEVELUP-S17-009
[:en]Mobile Game Maker[:fr]Mobile Game Maker[:],"[:en]Don't just play video games, MAKE THEM!
Learn how to make mobile games using Construct 2. Students will learn video game design principles as they use Construct as they make a series of video games. Games can be uploaded to their game store and be downloaded by friends! Construct 2 is an industry leading game engine. At the end of the week students will have a thorough working knowledge of Construct 2 and game logic.

Students will be using the free version of Construct 2, in order to continue making games students will need to download Construct 2 on a home computer.

What do students take home?
Students bring home all of their game files, as well as additional game art that students can use to create an unlimited number of games. They will also have access to our online tutorials.[:fr]Don't just play video games, MAKE THEM!
Learn how to make mobile games using Construct 2. Students will learn video game design principles as they use Construct as they make a series of video games. Games can be uploaded to their game store and be downloaded by friends! Construct 2 is an industry leading game engine. At the end of the week students will have a thorough working knowledge of Construct 2 and game logic.

Students will be using the free version of Construct 2, in order to continue making games students will need to download Construct 2 on a home computer.

What do students take home?
Students bring home all of their game files, as well as additional game art that students can use to create an unlimited number of games. They will also have access to our online tutorials.<div class=""translatedText"">""Ne vous contentez pas jouer à des jeux vidéo, les faire!
Apprenez à faire des jeux mobiles en utilisant Construire 2. Les élèves apprendront les principes de conception de jeux vidéo car ils utilisent Construct comme ils font une série de jeux vidéo. Les jeux peuvent être téléchargés dans leur magasin de jeu et télécharger par des amis! Construire 2 est un moteur de jeu leader de l'industrie. A la fin des étudiants de semaine auront une bonne connaissance approfondie de Construct 2 et de la logique du jeu.

Les élèves utiliseront la version gratuite de Construct 2, afin de continuer à faire des jeux étudiants devront télécharger Construct 2 sur un ordinateur à la maison.

Qu'est-ce que les élèves prennent la maison?
Les étudiants ramener à la maison tous les fichiers de jeu, ainsi que l'art de jeu supplémentaire que les étudiants peuvent utiliser pour créer un nombre illimité de jeux. Ils auront également accès à nos tutoriels en ligne.</div>[:]",7/17/2017,9:00:00 AM,7/21/2017,4:00:00 PM,Community Life,LevelUP,299,Summer Camps,[:en]https://levelupkids.ca/program/327[:fr]https://levelupkids.ca/program/327[:],,programming,TRUE,TRUE,10|11|12|13|14|15,English,,Science and Technology,Online booking,LEVELUP-S17-010
[:en]YouTube Camp[:fr]YouTube Camp[:],"[:en]Does your child dream of being the next YoutTube star?
This camp will give them the skills they need to make and develop a YouTube channel that you can be proud of.

Learn how to create an engaging YouTube channel

Campers will understand how to:

CREATE content worthy of YouTube.
Scripting and storyboarding.
Production skills.
Building their brand on YouTube.
Discover the ways they can make money with a YouTube channel.
Find out the essential elements of a YouTube channel.
Build fan engagement
Please Note:

Campers are required to bring their own recording device and cables to attach to the computer. Phones and cameras are acceptable for recording. Please note that the video quality is dictated by the device your child brings. Coding school Canada is not responsible for lost or stolen devices brought to camp.[:fr]Does your child dream of being the next YoutTube star?
This camp will give them the skills they need to make and develop a YouTube channel that you can be proud of.

Learn how to create an engaging YouTube channel

Campers will understand how to:

CREATE content worthy of YouTube.
Scripting and storyboarding.
Production skills.
Building their brand on YouTube.
Discover the ways they can make money with a YouTube channel.
Find out the essential elements of a YouTube channel.
Build fan engagement
Please Note:

Campers are required to bring their own recording device and cables to attach to the computer. Phones and cameras are acceptable for recording. Please note that the video quality is dictated by the device your child brings. Coding school Canada is not responsible for lost or stolen devices brought to camp.<div class=""translatedText"">""Votre enfant rêve d'être la prochaine star YoutTube?
Ce camp leur donnera les compétences dont ils ont besoin pour faire et de développer une chaîne YouTube que vous pouvez être fiers.

Apprenez à créer une chaîne YouTube engageante

Les campeurs comprendront comment:

Créer un contenu digne de YouTube.
Script et scénarisation.
compétences de production.
La construction de leur marque sur YouTube.
Découvrez la façon dont ils peuvent faire de l'argent avec une chaîne YouTube.
Découvrez les éléments essentiels d'une chaîne YouTube.
Construire l'engagement du ventilateur
Notez s'il vous plaît:

Les campeurs doivent apporter leur propre appareil d'enregistrement et de câbles pour attacher à l'ordinateur. Les téléphones et les caméras sont acceptables pour l'enregistrement. S'il vous plaît noter que la qualité vidéo est dictée par l'appareil de votre enfant apporte. école de codage Canada n'est pas responsable des appareils perdus ou volés apportés au camp.</div>[:]",7/24/2017,9:00:00 AM,7/28/2017,4:00:00 PM,Community Life,LevelUP,299,Summer Camps,[:en]https://levelupkids.ca/program/328[:fr]https://levelupkids.ca/program/328[:],,programming,TRUE,TRUE,10|11|12|13|14|15,English,,Science and Technology,Online booking,LEVELUP-S17-011
[:en]Host Your Own Minecraft Video Show[:fr]Host Your Own Minecraft Video Show[:],"[:en]Does your child spends hours watching Minecraft YouTube videos? This summer your child can learn to create their own Minecraft YouTube videos.
Campers will debut their original shows to our safe camp audience.

Campers will learn:

Recording
Branding. Banner design, avatars
Decide on your point of view.
Creating the ?point? of your video
Reviewing their video
Editing
Maximum views, titles, thumbnails etc.
Audiences
Sets
Collaborating
Tutorials
Vlogs
Filming a Minecraft intro video
What will students bring home?
Students will bring home access to their private YouTube Channel as well as access to the programs we use to capture their screens.

An active PC or MAC Minecraft account and password are required for this camp. If you do not have one, the game can be purchased at www.minecraft.net.

Please note that Minecraft accounts for xbox, and mobile devices do not work on computers.[:fr]Does your child spends hours watching Minecraft YouTube videos? This summer your child can learn to create their own Minecraft YouTube videos.
Campers will debut their original shows to our safe camp audience.

Campers will learn:

Recording
Branding. Banner design, avatars
Decide on your point of view.
Creating the ?point? of your video
Reviewing their video
Editing
Maximum views, titles, thumbnails etc.
Audiences
Sets
Collaborating
Tutorials
Vlogs
Filming a Minecraft intro video
What will students bring home?
Students will bring home access to their private YouTube Channel as well as access to the programs we use to capture their screens.

An active PC or MAC Minecraft account and password are required for this camp. If you do not have one, the game can be purchased at www.minecraft.net.

Please note that Minecraft accounts for xbox, and mobile devices do not work on computers.<div class=""translatedText"">""Votre enfant passe des heures à regarder des vidéos sur YouTube Minecraft? Cet été, votre enfant peut apprendre à créer leurs propres vidéos YouTube Minecraft.
Camping-cars fera ses débuts leurs spectacles originaux à notre public de camp en toute sécurité.

Les campeurs apprendront:

Enregistrement
L'image de marque. conception de bannières, avatars
Décider de votre point de vue.
Création du? Point de? de votre vidéo
Revoir leur vidéo
rédaction
Nombre maximal de vues, titres, vignettes etc.
Le public
ensembles
collaboration
Tutoriels
vlogs
Le tournage d'un Minecraft vidéo d'intro
Que vont les étudiants ramener à la maison?
Les étudiants apporteront un accès à domicile à leur chaîne YouTube privée ainsi que l'accès aux programmes que nous utilisons pour capturer leurs écrans.

Un PC actif ou d'un compte MAC Minecraft et mot de passe sont nécessaires pour ce camp. Si vous n'avez pas, le jeu peut être acheté à www.minecraft.net.

S'il vous plaît noter que les comptes Minecraft pour xbox et les appareils mobiles ne fonctionnent pas sur les ordinateurs.</div>[:]",7/24/2017,9:00:00 AM,7/28/2017,4:00:00 PM,Community Life,LevelUP,299,Summer Camps,[:en]https://levelupkids.ca/program/329[:fr]https://levelupkids.ca/program/329[:],,programming,TRUE,TRUE,,English,,Science and Technology,Online booking,LEVELUP-S17-012